%YAML 1.1
%TAG !u! tag:unity3d.com,2011:
--- !u!1045 &1
EditorBuildSettings:
  m_ObjectHideFlags: 0
  serializedVersion: 2
  m_Scenes:
  - enabled: 1
    path: Assets/Scenes/MainMenu.unity
    guid: 0313f1c22fe53a44ba86588ce3f43843
  - enabled: 1
    path: Assets/Scenes/Tuto.unity
    guid: 2b2d4d21fc85c284cbb4364224a4b706
  - enabled: 1
    path: Assets/Scenes/Level 1-1.unity
    guid: 5e572836313bc644fbed1dbbb35687f2
  - enabled: 1
    path: Assets/Scenes/Level 1-2.unity
    guid: 6025f758b4cc3ff47b68c54c9253f8fb
  - enabled: 1
    path: Assets/Scenes/Level 1-3.unity
    guid: 24fe8fbf22a99d64eadfd5ae341cd29b
  - enabled: 1
    path: Assets/Scenes/Level 1-4.unity
    guid: d2e70ab4b3d0e8548b4666be10fc94d0
  - enabled: 1
    path: Assets/Scenes/Leaderboard.unity
    guid: 7a160a17a91868043a9b46253c926bc3
  - enabled: 1
    path: Assets/Scenes/HowToPlay.unity
    guid: 88436ed57372e384d82601125715999f
  m_configObjects: {}
